,username,pass,nama_saksi,tps
0,sekotobadas1,SHSCVD4,sekotobadas1,sekoto1
1,sekotobadas2,QQBA14M,sekotobadas2,sekoto2
2,sekotobadas3,MHG0396,sekotobadas3,sekoto3
3,sekotobadas4,YSS2I7T,sekotobadas4,sekoto4
4,sekotobadas5,4HAEHPU,sekotobadas5,sekoto5
5,sekotobadas6,B98S3FJ,sekotobadas6,sekoto6
6,sekotobadas7,5IEWNBQ,sekotobadas7,sekoto7
7,sekotobadas8,NYD73SZ,sekotobadas8,sekoto8
8,sekotobadas9,A6NFWWP,sekotobadas9,sekoto9
9,sekotobadas10,MO02FB2,sekotobadas10,sekoto10
10,sekotobadas11,2VUQ5IH,sekotobadas11,sekoto11
11,sekotobadas12,UPNNA5B,sekotobadas12,sekoto12
12,sekotobadas13,MWJ2GRI,sekotobadas13,sekoto13
13,sekotobadas14,JD6MJMP,sekotobadas14,sekoto14
