,username,pass,nama_saksi,tps
0,sukorejogurah1,CPJYZ0H,sukorejogurah1,sukorejo1
1,sukorejogurah2,WOJNBI1,sukorejogurah2,sukorejo2
2,sukorejogurah3,36YGGNP,sukorejogurah3,sukorejo3
3,sukorejogurah4,F7FJ9BD,sukorejogurah4,sukorejo4
4,sukorejogurah5,LDPXIN6,sukorejogurah5,sukorejo5
5,sukorejogurah6,XBVTSAU,sukorejogurah6,sukorejo6
6,sukorejogurah7,AL59FMU,sukorejogurah7,sukorejo7
