,username,pass,nama_saksi,tps
0,gempolangurah1,BCJZRL9,gempolangurah1,gempolan1
1,gempolangurah2,YL6W455,gempolangurah2,gempolan2
2,gempolangurah3,9GC6EIN,gempolangurah3,gempolan3
3,gempolangurah4,9RVSILF,gempolangurah4,gempolan4
4,gempolangurah5,2Z4PP39,gempolangurah5,gempolan5
5,gempolangurah6,TO8J8JB,gempolangurah6,gempolan6
6,gempolangurah7,94ETNM0,gempolangurah7,gempolan7
