,username,pass,nama_saksi,tps
0,jambeankras1,JN8TY7F,jambeankras1,jambean1
1,jambeankras2,UQG9OFX,jambeankras2,jambean2
2,jambeankras3,FOYFWOM,jambeankras3,jambean3
3,jambeankras4,QZS26YU,jambeankras4,jambean4
4,jambeankras5,7OCF152,jambeankras5,jambean5
5,jambeankras6,J7H7IP7,jambeankras6,jambean6
6,jambeankras7,1Z0L1F9,jambeankras7,jambean7
7,jambeankras8,XXQRYFP,jambeankras8,jambean8
