,username,pass,nama_saksi,tps
0,krandangkras1,9S6KKVI,krandangkras1,krandang1
1,krandangkras2,RRJ23GS,krandangkras2,krandang2
2,krandangkras3,TD5UF82,krandangkras3,krandang3
3,krandangkras4,MO23CZX,krandangkras4,krandang4
4,krandangkras5,NCLKBSX,krandangkras5,krandang5
5,krandangkras7,6E26JC9,krandangkras7,krandang7
6,krandangkras8,4UTOALT,krandangkras8,krandang8
7,krandangkras9,AOI5CJU,krandangkras9,krandang9
8,krandangkras6,2A14HUW,krandangkras6,krandang6
