,username,pass,nama_saksi,tps
0,nyawangankras1,3DSU4ZT,nyawangankras1,nyawangan1
1,nyawangankras2,WWTNQGK,nyawangankras2,nyawangan2
2,nyawangankras3,9JQXCG2,nyawangankras3,nyawangan3
3,nyawangankras4,3QJJK1T,nyawangankras4,nyawangan4
4,nyawangankras5,EJVYVVX,nyawangankras5,nyawangan5
5,nyawangankras6,K5A89C2,nyawangankras6,nyawangan6
6,nyawangankras7,04P6VE8,nyawangankras7,nyawangan7
