,username,pass,nama_saksi,tps
0,pamonganmojo1,JJ76PXS,pamonganmojo1,pamongan1
1,pamonganmojo2,2CGD2L0,pamonganmojo2,pamongan2
2,pamonganmojo3,63ZNHRV,pamonganmojo3,pamongan3
3,pamonganmojo4,JX8TF9T,pamonganmojo4,pamongan4
4,pamonganmojo5,9EPGLXE,pamonganmojo5,pamongan5
5,pamonganmojo6,J6OWULW,pamonganmojo6,pamongan6
6,pamonganmojo7,CEMY3J3,pamonganmojo7,pamongan7
7,pamonganmojo8,M4BQ7XI,pamonganmojo8,pamongan8
