,username,pass,nama_saksi,tps
0,tambibendomojo1,O0H8XH2,tambibendomojo1,tambibendo1
1,tambibendomojo2,JRTNPP9,tambibendomojo2,tambibendo2
2,tambibendomojo3,DAR3MKE,tambibendomojo3,tambibendo3
3,tambibendomojo4,12WGAL3,tambibendomojo4,tambibendo4
4,tambibendomojo5,YCD4RBQ,tambibendomojo5,tambibendo5
5,tambibendomojo6,L05OBJL,tambibendomojo6,tambibendo6
6,tambibendomojo7,FZQ7Z06,tambibendomojo7,tambibendo7
7,tambibendomojo8,MGHC0O5,tambibendomojo8,tambibendo8
8,tambibendomojo9,X0T3UME,tambibendomojo9,tambibendo9
