,username,pass,nama_saksi,tps
0,badalngadiluwih1,9WH9NFM,badalngadiluwih1,badal1
1,badalngadiluwih2,RR9RSVB,badalngadiluwih2,badal2
2,badalngadiluwih3,3JBNOCA,badalngadiluwih3,badal3
3,badalngadiluwih4,YO9I3PU,badalngadiluwih4,badal4
4,badalngadiluwih5,8QVGCPB,badalngadiluwih5,badal5
