,username,pass,nama_saksi,tps
0,wonorejongadiluwih1,K48MCQK,wonorejongadiluwih1,wonorejo1
1,wonorejongadiluwih2,6A36TKN,wonorejongadiluwih2,wonorejo2
2,wonorejongadiluwih3,JS9T3VJ,wonorejongadiluwih3,wonorejo3
3,wonorejongadiluwih4,SOHXZIU,wonorejongadiluwih4,wonorejo4
4,wonorejongadiluwih5,P4T2405,wonorejongadiluwih5,wonorejo5
5,wonorejongadiluwih6,JXW0BG0,wonorejongadiluwih6,wonorejo6
6,wonorejongadiluwih7,113AJG4,wonorejongadiluwih7,wonorejo7
