,username,pass,nama_saksi,tps
0,tanonpapar1,CBFJ3UR,tanonpapar1,tanon1
1,tanonpapar2,IUOYAIJ,tanonpapar2,tanon2
2,tanonpapar3,Z00AO5J,tanonpapar3,tanon3
3,tanonpapar4,8WQ589O,tanonpapar4,tanon4
4,tanonpapar5,ELXDWBD,tanonpapar5,tanon5
5,tanonpapar6,N2L4CCS,tanonpapar6,tanon6
6,tanonpapar7,3HULV93,tanonpapar7,tanon7
