,username,pass,nama_saksi,tps
0,sambirejopare1,SCVRI3K,sambirejopare1,sambirejo1
1,sambirejopare2,0U4E8W1,sambirejopare2,sambirejo2
2,sambirejopare3,YX4XW0V,sambirejopare3,sambirejo3
3,sambirejopare4,7LMV2K0,sambirejopare4,sambirejo4
4,sambirejopare5,1JC1Z8C,sambirejopare5,sambirejo5
5,sambirejopare6,L450A7O,sambirejopare6,sambirejo6
6,sambirejopare7,MR6Q14H,sambirejopare7,sambirejo7
7,sambirejopare8,O9JBKXQ,sambirejopare8,sambirejo8
8,sambirejopare9,SSB4ZF8,sambirejopare9,sambirejo9
9,sambirejopare10,IDFJFYK,sambirejopare10,sambirejo10
10,sambirejopare11,99YT34D,sambirejopare11,sambirejo11
11,sambirejopare12,BWDBGIN,sambirejopare12,sambirejo12
12,sambirejopare13,MPGRCFD,sambirejopare13,sambirejo13
13,sambirejopare14,EI5UAOE,sambirejopare14,sambirejo14
14,sambirejopare15,B8VJ4FJ,sambirejopare15,sambirejo15
