,username,pass,nama_saksi,tps
0,tulungrejopare1,ZQX4GED,tulungrejopare1,tulungrejo1
1,tulungrejopare2,03M7YF5,tulungrejopare2,tulungrejo2
2,tulungrejopare3,ORQUJRZ,tulungrejopare3,tulungrejo3
3,tulungrejopare4,1ZX1GIH,tulungrejopare4,tulungrejo4
4,tulungrejopare5,K92EOH1,tulungrejopare5,tulungrejo5
5,tulungrejopare6,SA395T0,tulungrejopare6,tulungrejo6
6,tulungrejopare7,G30PH66,tulungrejopare7,tulungrejo7
7,tulungrejopare8,WUC6R1P,tulungrejopare8,tulungrejo8
8,tulungrejopare9,F5YB34O,tulungrejopare9,tulungrejo9
9,tulungrejopare10,QFU90RC,tulungrejopare10,tulungrejo10
10,tulungrejopare11,PEBHZ2K,tulungrejopare11,tulungrejo11
11,tulungrejopare12,FQL46YZ,tulungrejopare12,tulungrejo12
12,tulungrejopare13,PQUQD2R,tulungrejopare13,tulungrejo13
13,tulungrejopare14,U45ETF8,tulungrejopare14,tulungrejo14
14,tulungrejopare15,19XWGMZ,tulungrejopare15,tulungrejo15
15,tulungrejopare16,PW4KFNO,tulungrejopare16,tulungrejo16
16,tulungrejopare17,SSP62ZS,tulungrejopare17,tulungrejo17
17,tulungrejopare18,PBPFKQG,tulungrejopare18,tulungrejo18
18,tulungrejopare19,RW2R4P5,tulungrejopare19,tulungrejo19
19,tulungrejopare20,0KYKFLC,tulungrejopare20,tulungrejo20
20,tulungrejopare21,3WFHC9Q,tulungrejopare21,tulungrejo21
21,tulungrejopare22,JXA4RZU,tulungrejopare22,tulungrejo22
22,tulungrejopare23,M09BHUZ,tulungrejopare23,tulungrejo23
23,tulungrejopare24,3EV13H3,tulungrejopare24,tulungrejo24
24,tulungrejopare25,GBY0FK2,tulungrejopare25,tulungrejo25
25,tulungrejopare26,9KQMLE6,tulungrejopare26,tulungrejo26
26,tulungrejopare27,1TP9LBK,tulungrejopare27,tulungrejo27
27,tulungrejopare28,VETNWGN,tulungrejopare28,tulungrejo28
28,tulungrejopare29,3B7DCSJ,tulungrejopare29,tulungrejo29
29,tulungrejopare30,NF051ZA,tulungrejopare30,tulungrejo30
30,tulungrejopare31,MQH2J3O,tulungrejopare31,tulungrejo31
31,tulungrejopare32,YJNERMY,tulungrejopare32,tulungrejo32
32,tulungrejopare33,HCFUW27,tulungrejopare33,tulungrejo33
33,tulungrejopare34,VW21MXY,tulungrejopare34,tulungrejo34
