,username,pass,nama_saksi,tps
0,sebetplemahan1,LS1WB2F,sebetplemahan1,sebet1
1,sebetplemahan2,MB06250,sebetplemahan2,sebet2
2,sebetplemahan3,KOY6STA,sebetplemahan3,sebet3
3,sebetplemahan4,57WSR5E,sebetplemahan4,sebet4
