,username,pass,nama_saksi,tps
0,plemahanplemahan1,W51MW5H,plemahanplemahan1,plemahan1
1,plemahanplemahan2,9HESAX3,plemahanplemahan2,plemahan2
2,plemahanplemahan3,SM0F0C4,plemahanplemahan3,plemahan3
3,plemahanplemahan4,84VPSJE,plemahanplemahan4,plemahan4
4,plemahanplemahan5,FZ6F6J5,plemahanplemahan5,plemahan5
5,plemahanplemahan6,U83H90O,plemahanplemahan6,plemahan6
6,plemahanplemahan7,85CBO7O,plemahanplemahan7,plemahan7
7,plemahanplemahan8,0JDTTL8,plemahanplemahan8,plemahan8
8,plemahanplemahan9,TD5T6HX,plemahanplemahan9,plemahan9
9,plemahanplemahan10,M6BW4CJ,plemahanplemahan10,plemahan10
10,plemahanplemahan11,F4570XJ,plemahanplemahan11,plemahan11
