,username,pass,nama_saksi,tps
0,wonorejopuncu1,94BN2EQ,wonorejopuncu1,wonorejo1
1,wonorejopuncu2,J5SVNBH,wonorejopuncu2,wonorejo2
2,wonorejopuncu3,2A47AOG,wonorejopuncu3,wonorejo3
3,wonorejopuncu4,OSQTOVY,wonorejopuncu4,wonorejo4
4,wonorejopuncu5,QQ4LP26,wonorejopuncu5,wonorejo5
5,wonorejopuncu6,97KCUKL,wonorejopuncu6,wonorejo6
6,wonorejopuncu7,SGRHH7X,wonorejopuncu7,wonorejo7
7,wonorejopuncu8,R8BXCYS,wonorejopuncu8,wonorejo8
8,wonorejopuncu9,5GOFLCH,wonorejopuncu9,wonorejo9
9,wonorejopuncu10,AJT7UQ2,wonorejopuncu10,wonorejo10
10,wonorejopuncu11,26INZ3G,wonorejopuncu11,wonorejo11
11,wonorejopuncu12,Z3CESV8,wonorejopuncu12,wonorejo12
12,wonorejopuncu13,MZM0LN4,wonorejopuncu13,wonorejo13
13,wonorejopuncu14,5SQSNRI,wonorejopuncu14,wonorejo14
14,wonorejopuncu15,76L6GX2,wonorejopuncu15,wonorejo15
