,username,pass,nama_saksi,tps
0,sidomulyopurwoasri1,ZM5XZ1L,sidomulyopurwoasri1,sidomulyo1
1,sidomulyopurwoasri2,Q2DQEXD,sidomulyopurwoasri2,sidomulyo2
2,sidomulyopurwoasri3,5EAIH5T,sidomulyopurwoasri3,sidomulyo3
