,username,pass,nama_saksi,tps
0,sambiringinrejo1,99R0OHF,sambiringinrejo1,sambi1
1,sambiringinrejo2,TNPOTG8,sambiringinrejo2,sambi2
2,sambiringinrejo3,QEGBWIE,sambiringinrejo3,sambi3
3,sambiringinrejo4,AQUW6JG,sambiringinrejo4,sambi4
4,sambiringinrejo5,2HABS0Q,sambiringinrejo5,sambi5
5,sambiringinrejo6,ULVV7Q8,sambiringinrejo6,sambi6
6,sambiringinrejo7,4YGRFA6,sambiringinrejo7,sambi7
7,sambiringinrejo8,7H008UA,sambiringinrejo8,sambi8
8,sambiringinrejo9,ZPROV1U,sambiringinrejo9,sambi9
