,username,pass,nama_saksi,tps
0,ringinrejoringinrejo1,4VX8GM2,ringinrejoringinrejo1,ringinrejo1
1,ringinrejoringinrejo2,3I34M8A,ringinrejoringinrejo2,ringinrejo2
2,ringinrejoringinrejo3,JVBJSRU,ringinrejoringinrejo3,ringinrejo3
3,ringinrejoringinrejo4,87JYKGM,ringinrejoringinrejo4,ringinrejo4
4,ringinrejoringinrejo5,YJGFZEH,ringinrejoringinrejo5,ringinrejo5
5,ringinrejoringinrejo6,9KKT5QV,ringinrejoringinrejo6,ringinrejo6
6,ringinrejoringinrejo7,16VBGJ0,ringinrejoringinrejo7,ringinrejo7
7,ringinrejoringinrejo8,JVWURHG,ringinrejoringinrejo8,ringinrejo8
8,ringinrejoringinrejo9,OXVBPMN,ringinrejoringinrejo9,ringinrejo9
9,ringinrejoringinrejo10,OI0FHUC,ringinrejoringinrejo10,ringinrejo10
10,ringinrejoringinrejo11,I8MU7AR,ringinrejoringinrejo11,ringinrejo11
