,username,pass,nama_saksi,tps
0,puhrubuhsemen1,FMEA1X3,puhrubuhsemen1,puhrubuh1
1,puhrubuhsemen2,BOOL408,puhrubuhsemen2,puhrubuh2
2,puhrubuhsemen3,4Q8KNSI,puhrubuhsemen3,puhrubuh3
3,puhrubuhsemen4,PDJ92WQ,puhrubuhsemen4,puhrubuh4
4,puhrubuhsemen5,QYTDR41,puhrubuhsemen5,puhrubuh5
5,puhrubuhsemen6,6FFVBG9,puhrubuhsemen6,puhrubuh6
6,puhrubuhsemen7,7SG3241,puhrubuhsemen7,puhrubuh7
7,puhrubuhsemen8,ZN98396,puhrubuhsemen8,puhrubuh8
