,username,pass,nama_saksi,tps
0,johosemen1,O1EUVN8,johosemen1,joho1
1,johosemen2,EW866DA,johosemen2,joho2
2,johosemen3,XVZ9ACE,johosemen3,joho3
3,johosemen4,1XUNPXS,johosemen4,joho4
4,johosemen5,TEOC1O9,johosemen5,joho5
5,johosemen6,OK5H0W2,johosemen6,joho6
6,johosemen7,2QPTX77,johosemen7,joho7
7,johosemen8,OKA9W5I,johosemen8,joho8
