,username,pass,nama_saksi,tps
0,tungewates1,5DRDIJM,tungewates1,tunge1
1,tungewates2,H4LYERT,tungewates2,tunge2
2,tungewates3,MP2L3W8,tungewates3,tunge3
3,tungewates4,FP24TA6,tungewates4,tunge4
4,tungewates5,M8T85DE,tungewates5,tunge5
5,tungewates6,FSAEULN,tungewates6,tunge6
6,tungewates7,KBHBX1G,tungewates7,tunge7
7,tungewates8,0H57TD1,tungewates8,tunge8
8,tungewates9,SG5UYON,tungewates9,tunge9
9,tungewates10,E75OJQ5,tungewates10,tunge10
10,tungewates11,ER48HWT,tungewates11,tunge11
11,tungewates12,GTQ6N7U,tungewates12,tunge12
12,tungewates13,0ZFXCXO,tungewates13,tunge13
