,username,pass,nama_saksi,tps
0,sumberagungwates1,QH3AKZN,sumberagungwates1,sumberagung1
1,sumberagungwates2,USLST2U,sumberagungwates2,sumberagung2
2,sumberagungwates3,LQ15PG8,sumberagungwates3,sumberagung3
3,sumberagungwates4,NMM839U,sumberagungwates4,sumberagung4
4,sumberagungwates5,5V8AW4L,sumberagungwates5,sumberagung5
5,sumberagungwates6,FYG99JU,sumberagungwates6,sumberagung6
6,sumberagungwates7,DZHJ2I9,sumberagungwates7,sumberagung7
7,sumberagungwates8,NGA8NUR,sumberagungwates8,sumberagung8
8,sumberagungwates9,D35GSVL,sumberagungwates9,sumberagung9
9,sumberagungwates10,TUS06F0,sumberagungwates10,sumberagung10
10,sumberagungwates11,0RIIU9S,sumberagungwates11,sumberagung11
11,sumberagungwates12,LC5Q2QC,sumberagungwates12,sumberagung12
12,sumberagungwates13,F88ZJL6,sumberagungwates13,sumberagung13
13,sumberagungwates14,VRLXBLH,sumberagungwates14,sumberagung14
14,sumberagungwates15,43C22UC,sumberagungwates15,sumberagung15
15,sumberagungwates16,PRMSPG3,sumberagungwates16,sumberagung16
16,sumberagungwates17,MGNLXAI,sumberagungwates17,sumberagung17
